%YAML 1.1
%TAG !u! tag:unity3d.com,2011:
--- !u!162 &1
EditorUserSettings:
  m_ObjectHideFlags: 0
  serializedVersion: 4
  m_ConfigSettings:
    RecentlyUsedSceneGuid-0:
      value: 01525102030c5c03080f5d76157b0744134f40732d7e7e312c281e31e1b76c39
      flags: 0
    RecentlyUsedSceneGuid-1:
      value: 5055555304065909580c592142720c44154e497b7e2927627d7d1867e6e63239
      flags: 0
    RecentlyUsedSceneGuid-2:
      value: 54010656010d0c0a080a092442775a4440161d29747c77687b2d4c63e7e2316a
      flags: 0
    RecentlyUsedSceneGuid-3:
      value: 5652565701545f5d0e57587747705d44124e1d2f287872672f2f1e65e1e5623e
      flags: 0
    RecentlyUsedSceneGuid-4:
      value: 0709555e500c515e5b5a5c7712705c4413164a79292974362c784f61b3e2356d
      flags: 0
    RecentlyUsedSceneGuid-5:
      value: 0105565f5c0d5f030b5d0d73447407444f4e1e2b2a2c2433757a4967e7b8356e
      flags: 0
    RecentlyUsedSceneGuid-6:
      value: 52000c0456045d0f0956542614720e4440164d787b7a2564297a1f64b5b66c61
      flags: 0
    RecentlyUsedSceneGuid-7:
      value: 5a5757560101590a5d0c0e24427b5d44434e4c7a7b7a23677f2b4565b7b5353a
      flags: 0
    RecentlyUsedSceneGuid-8:
      value: 5703525e57065f0d545a0972412706441515487d7d2a77642c2c4a6bb0b6366a
      flags: 0
    RecentlyUsedSceneGuid-9:
      value: 5457515650515d025557587a16710b44444f41287a7d20357f704a66e3e56d6d
      flags: 0
    vcSharedLogLevel:
      value: 0d5e400f0650
      flags: 0
  m_VCAutomaticAdd: 1
  m_VCDebugCom: 0
  m_VCDebugCmd: 0
  m_VCDebugOut: 0
  m_SemanticMergeMode: 2
  m_DesiredImportWorkerCount: 5
  m_StandbyImportWorkerCount: 2
  m_IdleImportWorkerShutdownDelay: 60000
  m_VCShowFailedCheckout: 1
  m_VCOverwriteFailedCheckoutAssets: 1
  m_VCProjectOverlayIcons: 1
  m_VCHierarchyOverlayIcons: 1
  m_VCOtherOverlayIcons: 1
  m_VCAllowAsyncUpdate: 1
  m_ArtifactGarbageCollection: 1
